…
✓ Fold10: preprocessor 1/1, model 29/30
i Fold10: preprocessor 1/1, model 29/30 (predictions)
i Fold10: preprocessor 1/1, model 30/30
✓ Fold10: preprocessor 1/1, model 30/30
i Fold10: preprocessor 1/1, model 30/30 (predictions)
> 
> saveRDS(tune_tree_lr, "BTTuneTalapasGrid_Tuned.Rds")
> 
> 
> #collect metrics
> bt_grid_met <- tune_tree_lr %>%
+   collect_metrics() 
> 
> bt_grid_met
# A tibble: 60 x 7
   learn_rate .metric .estimator     mean     n std_err .config              
        <dbl> <chr>   <chr>         <dbl> <int>   <dbl> <fct>                
 1     0.0001 rmse    standard   1519.       10 0.100   Preprocessor1_Model01
 2     0.0001 rsq     standard      0.383    10 0.00179 Preprocessor1_Model01
 3     0.0104 rmse    standard     85.0      10 0.281   Preprocessor1_Model02
 4     0.0104 rsq     standard      0.460    10 0.00189 Preprocessor1_Model02
 5     0.0208 rmse    standard     85.0      10 0.274   Preprocessor1_Model03
 6     0.0208 rsq     standard      0.460    10 0.00182 Preprocessor1_Model03
 7     0.0311 rmse    standard     85.0      10 0.277   Preprocessor1_Model04
 8     0.0311 rsq     standard      0.460    10 0.00179 Preprocessor1_Model04
 9     0.0415 rmse    standard     85.0      10 0.296   Preprocessor1_Model05
10     0.0415 rsq     standard      0.459    10 0.00190 Preprocessor1_Model05
# … with 50 more rows
…
